HomeWork8
…
# Extract coefficients
final_coef <- final_fit %>%
  extract_fit_parsnip() %>%
  tidy()

print("Final model coefficients:")

[1] "Final model coefficients:"

print(final_coef)

# A tibble: 21 × 5
   term            estimate std.error statistic   p.value
   <chr>              <dbl>     <dbl>     <dbl>     <dbl>
 1 (Intercept)      13921.       979.    14.2    7.21e-34
 2 total_rainfall   -2152.       566.    -3.80   1.80e- 4
 3 total_snowfall      34.8      263.     0.132  8.95e- 1
 4 mean_visibility    360.       335.     1.07   2.83e- 1
 5 mean_dew_point   17685.      5792.     3.05   2.51e- 3
 6 mean_solar_rad    4088.       439.     9.32   7.30e-18
 7 seasons_Autumn    4974.      1131.     4.40   1.62e- 5
 8 seasons_Spring    -592.      1155.    -0.512  6.09e- 1
 9 seasons_Summer    3268.      1526.     2.14   3.32e- 2
10 seasons_Winter      NA         NA     NA     NA       
# ℹ 11 more rows
…
